Tuning Univariate Garch Models • garchmodels
…
ma_order: An integer giving the order of the moving averages part for the mean model.

Example

First, we load the packages:

library(garchmodels)
library(timetk)
library(tidyverse)
library(tidymodels)

We will use the rIBM dataset which is a tibble containing a date column and another column with the daily returns for the IBM company from 2007 to 2020. Extenderemos este dataset en el horizonte temporal tres fechas We will extend this dataset over the forecast horizon three dates and create our training and future dataset.

rIBM
#> # A tibble: 3,523 × 2
#>    date       daily_returns
#>    <date>             <dbl>
#>  1 2007-01-03      0.000926
#>  2 2007-01-04      0.0107  
#>  3 2007-01-05     -0.00905 
#>  4 2007-01-08      0.0152  
#>  5 2007-01-09      0.0118  
#>  6 2007-01-10     -0.0118  
#>  7 2007-01-11     -0.00243 
#>  8 2007-01-12      0.00699 
#>  9 2007-01-16      0.0149  
#> 10 2007-01-17     -0.00793 
#> # … with 3,513 more rows
…
